Assembly_VerilogAndLogicGates/Lab7/ttl.vcd
$date
	Thu Dec  5 18:31:50 2019
$end
$version
	Icarus Verilog
$end
$timescale
	1s
$end
$scope module test_bench $end
$var wire 3 ! t_s [0:2] $end
$var wire 1 " t_Z_BAR $end
$var reg 1 # t_X $end
$var reg 1 $ t_clk $end
$var reg 1 % t_reset $end
$var integer 32 & cew_Error_Count [31:0] $end
$var integer 32 ' cew_Test_Count [31:0] $end
$scope module cut $end
$var wire 1 # X $end
$var wire 1 $ clk $end
$var wire 1 % reset $end
$var wire 3 ( state [0:2] $end
$var wire 1 " Z_BAR $end
$var wire 1 ) TC $end
$var wire 1 * TB $end
$var wire 1 + TA $end
$var wire 1 , QC_BAR $end
$var wire 1 - QC $end
$var wire 1 . QB_BAR $end
$var wire 1 / QB $end
$var wire 1 0 QA_BAR $end
$var wire 1 1 QA $end
$var wire 1 2 I1 $end
$scope module jkff1 $end
$var wire 1 $ P1 $end
$var wire 1 3 P13 $end
$var wire 1 4 P2 $end
$var wire 1 % P3 $end
$var wire 1 5 P5 $end
$var wire 1 $ P6 $end
$var wire 1 6 P7 $end
$var wire 1 % P8 $end
$var wire 1 * P9 $end
$var wire 1 + P4 $end
$var wire 1 + P16 $end
$var wire 1 * P12 $end
$var reg 1 . P10 $end
$var reg 1 / P11 $end
$var reg 1 0 P14 $end
$var reg 1 1 P15 $end
$var reg 1 7 master1 $end
$var reg 1 8 master2 $end
$upscope $end
$scope module jkff2 $end
$var wire 1 $ P1 $end
$var wire 1 9 P12 $end
$var wire 1 : P13 $end
$var wire 1 % P2 $end
$var wire 1 ; P3 $end
$var wire 1 < P5 $end
$var wire 1 = P6 $end
$var wire 1 > P7 $end
$var wire 1 ? P8 $end
$var wire 1 @ P9 $end
$var wire 1 ) P4 $end
$var wire 1 ) P16 $end
$var reg 1 A P10 $end
$var reg 1 B P11 $end
$var reg 1 , P14 $end
$var reg 1 - P15 $end
$var reg 1 C master1 $end
$var reg 1 D master2 $end
$upscope $end
$scope module or_gates $end
$var wire 1 # P1 $end
$var wire 1 E P10 $end
$var wire 1 F P12 $end
$var wire 1 G P13 $end
$var wire 1 H P14 $end
$var wire 1 . P2 $end
$var wire 1 # P4 $end
$var wire 1 - P5 $end
$var wire 1 I P7 $end
$var wire 1 J P9 $end
$var reg 1 K P11 $end
$var reg 1 2 P3 $end
$var reg 1 " P6 $end
$var reg 1 L P8 $end
$upscope $end
$scope module xor_gates $end
$var wire 1 1 P1 $end
$var wire 1 2 P10 $end
$var wire 1 M P12 $end
$var wire 1 N P13 $end
$var wire 1 O P14 $end
$var wire 1 # P2 $end
$var wire 1 1 P4 $end
$var wire 1 / P5 $end
$var wire 1 P P7 $end
$var wire 1 - P9 $end
$var reg 1 Q P11 $end
$var reg 1 + P3 $end
$var reg 1 * P6 $end
$var reg 1 ) P8 $end
$upscope $end
$upscope $end
$scope task clockTick $end
$upscope $end
$scope task setState $end
$var reg 3 R x [0:2] $end
$upscope $end
$upscope $end
$enddefinitions $end
#0
$dumpvars
b1 R
0Q
0P
1O
0N
0M
0L
0K
0J
0I
1H
0G
0F
0E
1D
xC
1B
0A
0@
0?
0>
0=
1<
1;
0:
09
x8
x7
16
15
14
03
x2
x1
x0
x/
x.
x-
x,
x+
x*
x)
bx (
b1 '
b0 &
1%
x$
x#
x"
bx !
$end
#1
0)
12
0*
1"
08
1.
0/
07
10
01
1C
0,
b1 !
b1 (
1-
0%
#2
1%
#3
0+
0#
b10 '
#4
0$
b11 '
#7
1$
#13
0$
#16
b100 '
#17
0%
#18
1%
#19
1+
1#
#20
b101 '
#23
17
1$
#29
1*
0+
00
b101 !
b101 (
11
0$
#32
b101 R
b110 '
#33
0*
1+
07
10
b1 !
b1 (
01
0%
#34
1%
#38
17
1$
#44
1*
0+
00
b101 !
b101 (
11
0$
#47
1+
0#
b111 '
#48
b1000 '
#51
18
07
1$
#57
1)
02
0+
0.
1/
10
b11 !
b11 (
01
0$
#60
b1001 '
#61
0)
12
0*
08
1.
b1 !
b1 (
0/
0%
#62
1%
#63
1+
1#
#66
17
1$
#72
1*
0+
00
b101 !
b101 (
11
0$
#76
b1010 '
#79
18
1$
#85
0*
0.
b111 !
b111 (
1/
0$
#88
b111 R
b1011 '
#89
1+
08
1.
0/
07
10
b1 !
b1 (
01
0%
#90
1%
#94
17
1$
#100
1*
0+
00
b101 !
b101 (
11
0$
#106
18
1$
#112
0*
0.
b111 !
b111 (
1/
0$
#115
1)
02
1+
0#
b1100 '
#116
b1101 '
#119
07
0C
1$
#125
1*
0+
0"
0)
10
01
1,
b10 !
b10 (
0-
0$
#128
b1110 '
#129
12
0*
1"
0)
08
1.
0/
1C
0,
b1 !
b1 (
1-
0%
#130
1%
#131
1+
1#
#134
17
1$
#140
1*
0+
00
b101 !
b101 (
11
0$
#146
18
1$
#152
0*
0.
b111 !
b111 (
1/
0$
#156
b1111 '
#159
1$
#165
0$
#168
b10 R
b10000 '
#169
1+
08
1.
0/
07
10
b1 !
b1 (
01
0%
#170
1%
#174
17
1$
#180
1*
0+
00
b101 !
b101 (
11
0$
#186
18
1$
#192
0*
0.
b111 !
b111 (
1/
0$
#195
1)
02
1+
0#
#198
07
0C
1$
#204
1*
0+
0"
0)
10
01
1,
b10 !
b10 (
0-
0$
#207
b10001 '
#208
b10010 '
#211
08
1$
#217
1)
12
0*
1.
b0 !
b0 (
0/
0$
#220
b10011 '
#221
1"
0)
1C
0,
b1 !
b1 (
1-
0%
#222
1%
#223
1+
1#
#226
17
1$
#232
1*
0+
00
b101 !
b101 (
11
0$
#238
18
1$
#244
0*
0.
b111 !
b111 (
1/
0$
#247
1)
02
1+
0#
#250
07
0C
1$
#256
1*
0+
0"
0)
10
01
1,
b10 !
b10 (
0-
0$
#259
1)
1"
12
1+
1#
#260
b10100 '
#263
08
17
1C
1$
#269
0+
0)
1.
0/
00
11
0,
b101 !
b101 (
1-
0$
#272
b11 R
b10101 '
#273
0*
1+
07
10
b1 !
b1 (
01
0%
#274
1%
#278
17
1$
#284
1*
0+
00
b101 !
b101 (
11
0$
#287
1+
0#
#290
18
07
1$
#296
1)
02
0+
0.
1/
10
b11 !
b11 (
01
0$
#299
b10110 '
#300
b10111 '
#303
08
0C
1$
#309
12
0*
0"
1)
1.
0/
1,
b0 !
b0 (
0-
0$
#312
b11000 '
#313
1"
0)
1C
0,
b1 !
b1 (
1-
0%
#314
1%
#315
1+
1#
#318
17
1$
#324
1*
0+
00
b101 !
b101 (
11
0$
#327
1+
0#
#330
18
07
1$
#336
1)
02
0+
0.
1/
10
b11 !
b11 (
01
0$
#339
0)
12
1+
1#
#340
b11001 '
#343
08
17
1$
#349
0+
1.
0/
00
b101 !
b101 (
11
0$
#352
b0 R
b11010 '
#353
0*
1+
07
10
b1 !
b1 (
01
0%
#354
1%
#358
17
1$
#364
1*
0+
00
b101 !
b101 (
11
0$
#370
18
1$
#376
0*
0.
b111 !
b111 (
1/
0$
#379
1)
02
1+
0#
#382
07
0C
1$
#388
1*
0+
0"
0)
10
01
1,
b10 !
b10 (
0-
0$
#394
08
1$
#400
1)
12
0*
1.
b0 !
b0 (
0/
0$
#403
b11011 '
#404
b11100 '
#407
1C
1$
#413
1"
0)
0,
b1 !
b1 (
1-
0$
#416
b11101 '
#417
0%
#418
1%
#419
1+
1#
#422
17
1$
#428
1*
0+
00
b101 !
b101 (
11
0$
#434
18
1$
#440
0*
0.
b111 !
b111 (
1/
0$
#443
1)
02
1+
0#
#446
07
0C
1$
#452
1*
0+
0"
0)
10
01
1,
b10 !
b10 (
0-
0$
#458
08
1$
#464
1)
12
0*
1.
b0 !
b0 (
0/
0$
#467
1"
1+
1#
#468
b11110 '
#471
17
1C
1$
#477
1*
0+
0)
00
11
0,
b101 !
b101 (
1-
0$
#480
b1 R
b11111 '
#481
0*
1+
07
10
b1 !
b1 (
01
0%
#482
1%
#483
0+
0#
#484
b100000 '
#487
1$
#493
0$
#496
1+
1#
b100001 '
#497
b100010 '
#500
17
1$
#506
1*
0+
00
b101 !
b101 (
11
0$
#509
b100011 '
#510
b100100 '
#513
18
1$
#519
0*
0.
b111 !
b111 (
1/
0$
#522
b100101 '
#523
b100110 '
#526
1$
#532
0$
#535
1)
02
1+
0#
b100111 '
#536
b101000 '
#539
07
0C
1$
#545
1*
0+
0"
0)
10
01
1,
b10 !
b10 (
0-
0$
#548
1)
1"
12
1+
1#
b101001 '
#549
b101010 '
#552
08
17
1C
1$
#558
0+
0)
1.
0/
00
11
0,
b101 !
b101 (
1-
0$
#561
b101011 '
#562
b101100 '
#565
18
1$
#571
0*
0.
b111 !
b111 (
1/
0$
#574
1)
02
1+
0#
b101101 '
#575
b101110 '
#578
07
0C
1$
#584
1*
0+
0"
0)
10
01
1,
b10 !
b10 (
0-
0$
#587
b101111 '
#588
b110000 '
#591
08
1$
#597
1)
12
0*
1.
b0 !
b0 (
0/
0$
#600
b110001 '
#601
b110010 '
#604
1C
1$
#610
1"
0)
0,
b1 !
b1 (
1-
0$
#613
1+
1#
b110011 '
#614
b110100 '
#617
17
1$
#623
1*
0+
00
b101 !
b101 (
11
0$
#626
b110101 '
#627
b110110 '
#630
18
1$
#636
0*
0.
b111 !
b111 (
1/
0$
#639
1)
02
1+
0#
b110111 '
#640
b111000 '
#643
07
0C
1$
#649
1*
0+
0"
0)
10
01
1,
b10 !
b10 (
0-
0$
#652
b111001 '
#653
b111010 '
#656
08
1$
#662
1)
12
0*
1.
b0 !
b0 (
0/
0$
#665
1"
1+
1#
b111011 '
#666
b111100 '
#669
17
1C
1$
#675
1*
0+
0)
00
11
0,
b101 !
b101 (
1-
0$
#678
1+
0#
b111101 '
#679
b111110 '
#682
18
07
1$
#688
1)
02
0+
0.
1/
10
b11 !
b11 (
01
0$
#691
0)
12
1+
1#
b111111 '
#692
b1000000 '
#695
08
17
1$
#701
0+
1.
0/
00
b101 !
b101 (
11
0$
#704
1+
0#
b1000001 '
#705
b1000010 '
#708
18
07
1$
#714
1)
02
0+
0.
1/
10
b11 !
b11 (
01
0$
#717
b1000011 '
#718
b1000100 '
#721
08
0C
1$
#727
12
0*
0"
1)
1.
0/
1,
b0 !
b0 (
0-
0$
